EESchema Schematic File Version 4
LIBS:chairiot-cache
EELAYER 26 0
EELAYER END
$Descr A4 11693 8268
encoding utf-8
Sheet 1 1
Title ""
Date ""
Rev ""
Comp ""
Comment1 ""
Comment2 ""
Comment3 ""
Comment4 ""
$EndDescr
$Comp
L conn:Raspberry_Pi_2_3 J1
U 1 1 5AD3BBCF
P 5700 2550
F 0 "J1" H 6400 1300 50  0000 C CNN
F 1 "Raspberry Pi Model 3 B+" H 5400 3450 50  0000 C CNN
F 2 "Pin_Headers:Pin_Header_Straight_2x20" H 6700 3800 50  0001 C CNN
F 3 "" H 5750 2400 50  0001 C CNN
	1    5700 2550
	1    0    0    -1  
$EndComp
$Comp
L adc-dac:MCP3008 U4
U 1 1 5AD3BF54
P 8250 3800
F 0 "U4" H 8050 4325 50  0000 R CNN
F 1 "MCP3008" H 8050 4250 50  0000 R CNN
F 2 "" H 8350 3900 50  0001 C CNN
F 3 "" H 8350 3900 50  0001 C CNN
	1    8250 3800
	-1   0    0    1   
$EndComp
$Comp
L SparkFun-Electromechanical:SERVO M1
U 1 1 5AD3C2CF
P 4500 3750
F 0 "M1" H 4150 3850 45  0000 L BNN
F 1 "SERVO" H 4150 3400 45  0000 L BNN
F 2 "1X03" H 4500 3950 20  0001 C CNN
F 3 "" H 4500 3750 60  0001 C CNN
F 4 "XXX-00000" H 4500 4000 60  0000 C CNN "Field4"
	1    4500 3750
	0    1    -1   0   
$EndComp
$Comp
L Device:Battery_Cell BT2
U 1 1 5AD3C3BD
P 2500 1150
F 0 "BT2" H 2600 1250 50  0000 L CNN
F 1 "BATT" H 2600 1150 50  0000 L CNN
F 2 "" V 2500 1210 50  0001 C CNN
F 3 "" V 2500 1210 50  0001 C CNN
	1    2500 1150
	-1   0    0    1   
$EndComp
$Comp
L Device:Battery_Cell BT4
U 1 1 5AD3C498
P 3200 1150
F 0 "BT4" H 3300 1250 50  0000 L CNN
F 1 "BATT" H 3300 1150 50  0000 L CNN
F 2 "" V 3200 1210 50  0001 C CNN
F 3 "" V 3200 1210 50  0001 C CNN
	1    3200 1150
	-1   0    0    1   
$EndComp
$Comp
L Device:Battery_Cell BT3
U 1 1 5AD3C4D6
P 2850 1150
F 0 "BT3" H 2950 1250 50  0000 L CNN
F 1 "BATT" H 2950 1150 50  0000 L CNN
F 2 "" V 2850 1210 50  0001 C CNN
F 3 "" V 2850 1210 50  0001 C CNN
	1    2850 1150
	-1   0    0    1   
$EndComp
$Comp
L Device:Battery_Cell BT1
U 1 1 5AD3C517
P 2150 1150
F 0 "BT1" H 2250 1250 50  0000 L CNN
F 1 "BATT" H 2250 1150 50  0000 L CNN
F 2 "" V 2150 1210 50  0001 C CNN
F 3 "" V 2150 1210 50  0001 C CNN
	1    2150 1150
	-1   0    0    1   
$EndComp
$Comp
L SparkFun-Resistors:RESISTOR0402 R1
U 1 1 5AD3C83D
P 9950 2850
F 0 "R1" H 9750 2900 45  0000 L BNN
F 1 "FORCE SENSITIVE RESISTOR" H 9750 2700 45  0000 L BNN
F 2 "0402" H 9950 3000 20  0001 C CNN
F 3 "" H 9950 2850 60  0001 C CNN
F 4 " " H 9950 3050 60  0000 C CNN "Field4"
	1    9950 2850
	-1   0    0    1   
$EndComp
$Comp
L chairiot_custom:Full-Bridge_Steel_Strain_Gauge STRN3
U 1 1 5AD3D72F
P 9200 1950
F 0 "STRN3" H 9200 1650 60  0000 C CNN
F 1 "Full-Bridge_Steel_Strain_Gauge" H 9250 2200 60  0000 C CNN
F 2 "" H 9350 1950 60  0001 C CNN
F 3 "" H 9350 1950 60  0001 C CNN
	1    9200 1950
	1    0    0    1   
$EndComp
$Comp
L chairiot_custom:Full-Bridge_Steel_Strain_Gauge STRN1
U 1 1 5AD3D7A8
P 2050 3700
F 0 "STRN1" H 2050 3400 60  0000 C CNN
F 1 "Full-Bridge_Steel_Strain_Gauge" H 2100 3950 60  0000 C CNN
F 2 "" H 2200 3700 60  0001 C CNN
F 3 "" H 2200 3700 60  0001 C CNN
	1    2050 3700
	-1   0    0    -1  
$EndComp
$Comp
L chairiot_custom:Full-Bridge_Steel_Strain_Gauge STRN2
U 1 1 5AD3D7F1
P 2050 4350
F 0 "STRN2" H 2050 4050 60  0000 C CNN
F 1 "Full-Bridge_Steel_Strain_Gauge" H 2100 4600 60  0000 C CNN
F 2 "" H 2200 4350 60  0001 C CNN
F 3 "" H 2200 4350 60  0001 C CNN
	1    2050 4350
	-1   0    0    -1  
$EndComp
$Comp
L chairiot_custom:Full-Bridge_Steel_Strain_Gauge STRN4
U 1 1 5AD3D83D
P 9600 5000
F 0 "STRN4" H 9600 4700 60  0000 C CNN
F 1 "Full-Bridge_Steel_Strain_Gauge" H 9650 5250 60  0000 C CNN
F 2 "" H 9750 5000 60  0001 C CNN
F 3 "" H 9750 5000 60  0001 C CNN
	1    9600 5000
	1    0    0    1   
$EndComp
$Comp
L chairiot_custom:HX711_AMP AMP4
U 1 1 5AD3DCC9
P 8200 4900
F 0 "AMP4" H 8200 4600 60  0000 C CNN
F 1 "HX711_AMP" H 8200 5200 60  0000 C CNN
F 2 "" H 8200 4900 60  0001 C CNN
F 3 "" H 8200 4900 60  0001 C CNN
	1    8200 4900
	-1   0    0    1   
$EndComp
$Comp
L chairiot_custom:HX711_AMP AMP2
U 1 1 5AD3DD28
P 3150 4450
F 0 "AMP2" H 3150 4150 60  0000 C CNN
F 1 "HX711_AMP" H 3150 4750 60  0000 C CNN
F 2 "" H 3150 4450 60  0001 C CNN
F 3 "" H 3150 4450 60  0001 C CNN
	1    3150 4450
	1    0    0    -1  
$EndComp
$Comp
L chairiot_custom:HX711_AMP AMP1
U 1 1 5AD3DD88
P 3150 3650
F 0 "AMP1" H 3150 3350 60  0000 C CNN
F 1 "HX711_AMP" H 3150 3950 60  0000 C CNN
F 2 "" H 3150 3650 60  0001 C CNN
F 3 "" H 3150 3650 60  0001 C CNN
	1    3150 3650
	1    0    0    -1  
$EndComp
$Comp
L chairiot_custom:A_SENSOR A_SENS1
U 1 1 5AD3E040
P 9900 3400
F 0 "A_SENS1" H 9900 3200 60  0000 C CNN
F 1 "A_SENSOR" H 9900 3650 60  0000 C CNN
F 2 "" H 9950 3400 60  0001 C CNN
F 3 "" H 9950 3400 60  0001 C CNN
	1    9900 3400
	-1   0    0    1   
$EndComp
$Comp
L chairiot_custom:V_SENSOR V_SENS1
U 1 1 5AD3E0A7
P 9900 4000
F 0 "V_SENS1" H 9900 3800 60  0000 C CNN
F 1 "V_SENSOR" H 9900 4250 60  0000 C CNN
F 2 "" H 9950 4000 60  0001 C CNN
F 3 "" H 9950 4000 60  0001 C CNN
	1    9900 4000
	-1   0    0    1   
$EndComp
$Comp
L chairiot_custom:HC-SR04 HC1
U 1 1 5AD3D8B4
P 4100 1650
F 0 "HC1" H 4200 1350 60  0000 C CNN
F 1 "HC-SR04" H 4200 1850 60  0000 C CNN
F 2 "" H 4100 1650 60  0001 C CNN
F 3 "" H 4100 1650 60  0001 C CNN
	1    4100 1650
	-1   0    0    1   
$EndComp
$Comp
L chairiot_custom:BUCK BUCK1
U 1 1 5AD3DA99
P 2750 1750
F 0 "BUCK1" H 2750 1600 60  0000 C CNN
F 1 "BUCK" H 2750 1900 60  0000 C CNN
F 2 "" H 2750 1750 60  0001 C CNN
F 3 "" H 2750 1750 60  0001 C CNN
	1    2750 1750
	1    0    0    -1  
$EndComp
$Comp
L power:GND #PWR1
U 1 1 5AD3EDCE
P 2150 1050
F 0 "#PWR1" H 2150 800 50  0001 C CNN
F 1 "GND" H 2150 900 50  0000 C CNN
F 2 "" H 2150 1050 50  0001 C CNN
F 3 "" H 2150 1050 50  0001 C CNN
	1    2150 1050
	-1   0    0    1   
$EndComp
$Comp
L power:GND #PWR3
U 1 1 5AD3EF3D
P 2500 1050
F 0 "#PWR3" H 2500 800 50  0001 C CNN
F 1 "GND" H 2500 900 50  0000 C CNN
F 2 "" H 2500 1050 50  0001 C CNN
F 3 "" H 2500 1050 50  0001 C CNN
	1    2500 1050
	-1   0    0    1   
$EndComp
$Comp
L power:GND #PWR6
U 1 1 5AD3EF93
P 2850 1050
F 0 "#PWR6" H 2850 800 50  0001 C CNN
F 1 "GND" H 2850 900 50  0000 C CNN
F 2 "" H 2850 1050 50  0001 C CNN
F 3 "" H 2850 1050 50  0001 C CNN
	1    2850 1050
	-1   0    0    1   
$EndComp
$Comp
L power:GND #PWR7
U 1 1 5AD3EFE9
P 3200 1050
F 0 "#PWR7" H 3200 800 50  0001 C CNN
F 1 "GND" H 3200 900 50  0000 C CNN
F 2 "" H 3200 1050 50  0001 C CNN
F 3 "" H 3200 1050 50  0001 C CNN
	1    3200 1050
	-1   0    0    1   
$EndComp
$Comp
L power:GND #PWR2
U 1 1 5AD3F7C9
P 2250 1800
F 0 "#PWR2" H 2250 1550 50  0001 C CNN
F 1 "GND" H 2250 1650 50  0000 C CNN
F 2 "" H 2250 1800 50  0001 C CNN
F 3 "" H 2250 1800 50  0001 C CNN
	1    2250 1800
	0    1    1    0   
$EndComp
$Comp
L power:GND #PWR8
U 1 1 5AD3FAB2
P 3200 1800
F 0 "#PWR8" H 3200 1550 50  0001 C CNN
F 1 "GND" H 3200 1650 50  0000 C CNN
F 2 "" H 3200 1800 50  0001 C CNN
F 3 "" H 3200 1800 50  0001 C CNN
	1    3200 1800
	0    -1   -1   0   
$EndComp
$Comp
L SparkFun-Sensors:TMP102 U3
U 1 1 5AD4262E
P 7150 1400
F 0 "U3" H 7300 1150 45  0000 L BNN
F 1 "TMP102" H 6950 1150 45  0000 L BNN
F 2 "SOT563" H 7150 1600 20  0001 C CNN
F 3 "" H 7150 1400 60  0001 C CNN
F 4 "IC-09303" H 7200 1700 60  0000 C CNN "Field4"
	1    7150 1400
	-1   0    0    1   
$EndComp
$Comp
L power:GND #PWR13
U 1 1 5AD4293F
P 7450 1350
F 0 "#PWR13" H 7450 1100 50  0001 C CNN
F 1 "GND" H 7450 1200 50  0000 C CNN
F 2 "" H 7450 1350 50  0001 C CNN
F 3 "" H 7450 1350 50  0001 C CNN
	1    7450 1350
	0    -1   -1   0   
$EndComp
$Comp
L chairiot_custom:Adafruit_PN532_RFID RFID1
U 1 1 5AE00838
P 8200 2600
F 0 "RFID1" H 8200 2300 60  0000 C CNN
F 1 "Adafruit_PN532_RFID" H 8200 2900 60  0000 C CNN
F 2 "" H 8200 2600 60  0001 C CNN
F 3 "" H 8200 2600 60  0001 C CNN
	1    8200 2600
	1    0    0    -1  
$EndComp
Wire Wire Line
	2150 1450 2500 1450
Wire Wire Line
	3200 1450 3200 1350
Wire Wire Line
	2850 1350 2850 1450
Connection ~ 2850 1450
Wire Wire Line
	2500 1350 2500 1450
Connection ~ 2500 1450
Wire Wire Line
	2150 1350 2150 1450
Wire Wire Line
	2150 1700 2250 1700
Connection ~ 2150 1450
Wire Wire Line
	3200 1700 3650 1700
Wire Wire Line
	3650 1150 3650 1700
Wire Wire Line
	3650 1150 4650 1150
Wire Wire Line
	5500 850  5500 950 
Wire Wire Line
	6600 1750 6750 1750
Wire Wire Line
	6750 1750 6750 1600
Wire Wire Line
	6750 1600 6800 1600
Wire Wire Line
	6600 1650 6700 1650
Wire Wire Line
	6700 1650 6700 1500
Wire Wire Line
	6700 1500 6800 1500
Wire Wire Line
	5500 950  7800 950 
Wire Wire Line
	7800 950  7800 1450
Wire Wire Line
	7800 1450 7650 1450
Connection ~ 5500 1150
Wire Wire Line
	7650 2450 6600 2450
Wire Wire Line
	7650 2550 7350 2550
Wire Wire Line
	6600 2650 7450 2650
Wire Wire Line
	7650 2750 7250 2750
Wire Wire Line
	8750 2400 9050 2400
Wire Wire Line
	3750 900  5800 900 
Wire Wire Line
	5800 900  5800 1150
$Comp
L power:GND #PWR19
U 1 1 5AE0135C
P 8750 2700
F 0 "#PWR19" H 8750 2450 50  0001 C CNN
F 1 "GND" H 8750 2550 50  0000 C CNN
F 2 "" H 8750 2700 50  0001 C CNN
F 3 "" H 8750 2700 50  0001 C CNN
	1    8750 2700
	0    -1   -1   0   
$EndComp
$Comp
L power:GND #PWR17
U 1 1 5AE0150B
P 8050 3200
F 0 "#PWR17" H 8050 2950 50  0001 C CNN
F 1 "GND" H 8050 3050 50  0000 C CNN
F 2 "" H 8050 3200 50  0001 C CNN
F 3 "" H 8050 3200 50  0001 C CNN
	1    8050 3200
	-1   0    0    1   
$EndComp
$Comp
L power:GND #PWR18
U 1 1 5AE01561
P 8350 3200
F 0 "#PWR18" H 8350 2950 50  0001 C CNN
F 1 "GND" H 8350 3050 50  0000 C CNN
F 2 "" H 8350 3200 50  0001 C CNN
F 3 "" H 8350 3200 50  0001 C CNN
	1    8350 3200
	-1   0    0    1   
$EndComp
Wire Wire Line
	7650 3600 7550 3600
Wire Wire Line
	7550 3600 7550 2350
Wire Wire Line
	7550 2350 6600 2350
Wire Wire Line
	7650 3700 7450 3700
Wire Wire Line
	7450 3700 7450 2650
Connection ~ 7450 2650
Wire Wire Line
	7650 3800 7350 3800
Wire Wire Line
	7350 3800 7350 2550
Connection ~ 7350 2550
Wire Wire Line
	7650 3900 7250 3900
Wire Wire Line
	7250 3900 7250 2750
Connection ~ 7250 2750
Wire Wire Line
	8050 4300 8050 4400
Wire Wire Line
	7650 4400 8050 4400
Wire Wire Line
	8350 4400 8350 4300
Connection ~ 9050 2400
Connection ~ 8350 4400
$Comp
L power:GND #PWR12
U 1 1 5AE01AD9
P 4350 1450
F 0 "#PWR12" H 4350 1200 50  0001 C CNN
F 1 "GND" H 4350 1300 50  0000 C CNN
F 2 "" H 4350 1450 50  0001 C CNN
F 3 "" H 4350 1450 50  0001 C CNN
	1    4350 1450
	0    -1   -1   0   
$EndComp
Wire Wire Line
	4350 1750 4650 1750
Wire Wire Line
	4650 1750 4650 1150
Connection ~ 4650 1150
Wire Wire Line
	4350 1650 4600 1650
Wire Wire Line
	4600 1650 4600 1950
Wire Wire Line
	4600 1950 4800 1950
Wire Wire Line
	4350 1550 4450 1550
Wire Wire Line
	4450 1550 4450 2950
Wire Wire Line
	4450 2950 4800 2950
$Comp
L chairiot_custom:Adafruit_MTK3339_GPS GPS1
U 1 1 5AE022AF
P 8200 5700
F 0 "GPS1" H 8200 5400 60  0000 C CNN
F 1 "Adafruit_MTK3339_GPS" H 8200 6050 60  0000 C CNN
F 2 "" H 8200 5700 60  0001 C CNN
F 3 "" H 8200 5700 60  0001 C CNN
	1    8200 5700
	-1   0    0    1   
$EndComp
$Comp
L power:GND #PWR14
U 1 1 5AE0244B
P 7750 5700
F 0 "#PWR14" H 7750 5450 50  0001 C CNN
F 1 "GND" H 7750 5550 50  0000 C CNN
F 2 "" H 7750 5700 50  0001 C CNN
F 3 "" H 7750 5700 50  0001 C CNN
	1    7750 5700
	0    1    1    0   
$EndComp
Wire Wire Line
	9050 4400 9050 2400
Wire Wire Line
	7750 5600 7550 5600
Wire Wire Line
	7550 5600 7550 5350
Wire Wire Line
	7550 5350 9100 5350
Wire Wire Line
	9100 5350 9100 4450
Wire Wire Line
	9100 850  5500 850 
Connection ~ 5500 950 
$Comp
L chairiot_custom:DS18B20_TMP U1
U 1 1 5AE03171
P 2350 2350
F 0 "U1" H 2300 2550 45  0000 L BNN
F 1 "DS18B20_TMP" H 2200 2100 45  0000 L BNN
F 2 "TO-92-AMMO" H 2350 2650 20  0001 C CNN
F 3 "" H 2500 2350 60  0001 C CNN
F 4 "SEN-00245" H 2350 2700 60  0000 C CNN "Field4"
	1    2350 2350
	-1   0    0    1   
$EndComp
Wire Wire Line
	2550 2350 4250 2350
Wire Wire Line
	4250 1850 4250 2050
Wire Wire Line
	4250 1850 4800 1850
$Comp
L chairiot_custom:DS18B20_TMP U2
U 1 1 5AE03491
P 2350 3000
F 0 "U2" H 2300 3200 45  0000 L BNN
F 1 "DS18B20_TMP" H 2200 2750 45  0000 L BNN
F 2 "TO-92-AMMO" H 2350 3300 20  0001 C CNN
F 3 "" H 2500 3000 60  0001 C CNN
F 4 "SEN-00245" H 2350 3350 60  0000 C CNN "Field4"
	1    2350 3000
	-1   0    0    1   
$EndComp
$Comp
L power:GND #PWR4
U 1 1 5AE0355C
P 2550 2250
F 0 "#PWR4" H 2550 2000 50  0001 C CNN
F 1 "GND" H 2550 2100 50  0000 C CNN
F 2 "" H 2550 2250 50  0001 C CNN
F 3 "" H 2550 2250 50  0001 C CNN
	1    2550 2250
	0    -1   -1   0   
$EndComp
$Comp
L power:GND #PWR5
U 1 1 5AE035B5
P 2550 2900
F 0 "#PWR5" H 2550 2650 50  0001 C CNN
F 1 "GND" H 2550 2750 50  0000 C CNN
F 2 "" H 2550 2900 50  0001 C CNN
F 3 "" H 2550 2900 50  0001 C CNN
	1    2550 2900
	0    -1   -1   0   
$EndComp
Wire Wire Line
	2550 2450 3750 2450
Wire Wire Line
	3750 900  3750 2050
Connection ~ 5800 900 
Wire Wire Line
	3750 3100 2550 3100
Connection ~ 3750 2450
Wire Wire Line
	9650 4100 8850 4100
Wire Wire Line
	9650 4000 9100 4000
Connection ~ 9100 4000
Wire Wire Line
	10150 3950 10450 3950
Wire Wire Line
	10450 3350 10450 3950
Wire Wire Line
	10450 4450 9100 4450
Connection ~ 9100 4450
$Comp
L power:GND #PWR23
U 1 1 5AE133AC
P 10150 4050
F 0 "#PWR23" H 10150 3800 50  0001 C CNN
F 1 "GND" H 10150 3900 50  0000 C CNN
F 2 "" H 10150 4050 50  0001 C CNN
F 3 "" H 10150 4050 50  0001 C CNN
	1    10150 4050
	0    -1   -1   0   
$EndComp
$Comp
L power:GND #PWR21
U 1 1 5AE1340B
P 9650 3900
F 0 "#PWR21" H 9650 3650 50  0001 C CNN
F 1 "GND" H 9650 3750 50  0000 C CNN
F 2 "" H 9650 3900 50  0001 C CNN
F 3 "" H 9650 3900 50  0001 C CNN
	1    9650 3900
	0    1    1    0   
$EndComp
$Comp
L power:GND #PWR20
U 1 1 5AE1357C
P 9650 3300
F 0 "#PWR20" H 9650 3050 50  0001 C CNN
F 1 "GND" H 9650 3150 50  0000 C CNN
F 2 "" H 9650 3300 50  0001 C CNN
F 3 "" H 9650 3300 50  0001 C CNN
	1    9650 3300
	0    1    1    0   
$EndComp
$Comp
L power:GND #PWR22
U 1 1 5AE135DB
P 10150 3450
F 0 "#PWR22" H 10150 3200 50  0001 C CNN
F 1 "GND" H 10150 3300 50  0000 C CNN
F 2 "" H 10150 3450 50  0001 C CNN
F 3 "" H 10150 3450 50  0001 C CNN
	1    10150 3450
	0    -1   -1   0   
$EndComp
Wire Wire Line
	10150 3350 10450 3350
Connection ~ 10450 3950
Wire Wire Line
	9650 3500 9000 3500
Wire Wire Line
	9000 3500 9000 4000
Wire Wire Line
	9000 4000 8850 4000
Wire Wire Line
	9650 3400 9100 3400
Connection ~ 9100 3400
$Comp
L chairiot_custom:HX711_AMP AMP3
U 1 1 5AE14279
P 8150 1850
F 0 "AMP3" H 8150 1550 60  0000 C CNN
F 1 "HX711_AMP" H 8150 2150 60  0000 C CNN
F 2 "" H 8150 1850 60  0001 C CNN
F 3 "" H 8150 1850 60  0001 C CNN
	1    8150 1850
	-1   0    0    1   
$EndComp
Wire Wire Line
	8950 1750 8500 1750
Wire Wire Line
	8950 1850 8500 1850
Wire Wire Line
	8950 1950 8500 1950
Wire Wire Line
	8500 2050 8950 2050
$Comp
L power:GND #PWR15
U 1 1 5AE14CCE
P 7850 1650
F 0 "#PWR15" H 7850 1400 50  0001 C CNN
F 1 "GND" H 7850 1500 50  0000 C CNN
F 2 "" H 7850 1650 50  0001 C CNN
F 3 "" H 7850 1650 50  0001 C CNN
	1    7850 1650
	0    1    1    0   
$EndComp
Wire Wire Line
	7850 1950 7650 1950
Wire Wire Line
	7650 1450 7650 1950
Connection ~ 7650 1450
Wire Wire Line
	7650 2050 7850 2050
Connection ~ 7650 1950
Wire Wire Line
	7850 1750 7100 1750
Wire Wire Line
	7100 1750 7100 2050
Wire Wire Line
	7100 2050 6600 2050
Wire Wire Line
	6600 2150 7200 2150
Wire Wire Line
	7200 2150 7200 1850
Wire Wire Line
	7200 1850 7850 1850
Wire Wire Line
	9350 4800 8550 4800
Wire Wire Line
	8550 4900 9350 4900
Wire Wire Line
	9350 5000 8550 5000
Wire Wire Line
	8550 5100 9350 5100
$Comp
L power:GND #PWR16
U 1 1 5AE15C38
P 7900 4700
F 0 "#PWR16" H 7900 4450 50  0001 C CNN
F 1 "GND" H 7900 4550 50  0000 C CNN
F 2 "" H 7900 4700 50  0001 C CNN
F 3 "" H 7900 4700 50  0001 C CNN
	1    7900 4700
	0    1    1    0   
$EndComp
Wire Wire Line
	7900 5000 7650 5000
Wire Wire Line
	7650 4400 7650 5000
Connection ~ 8050 4400
Wire Wire Line
	7650 5100 7900 5100
Connection ~ 7650 5000
Wire Wire Line
	7900 4800 7100 4800
Wire Wire Line
	7100 4800 7100 2950
Wire Wire Line
	7100 2950 6600 2950
Wire Wire Line
	7900 4900 7000 4900
Wire Wire Line
	7000 4900 7000 3050
Wire Wire Line
	7000 3050 6600 3050
Wire Wire Line
	9100 2650 10250 2650
Connection ~ 9100 2650
Wire Wire Line
	9150 2850 9150 3900
Wire Wire Line
	9150 3900 8850 3900
Wire Wire Line
	3650 3450 3450 3450
Connection ~ 3650 1700
Wire Wire Line
	3650 3550 3450 3550
Connection ~ 3650 3450
Wire Wire Line
	3650 4250 3450 4250
Connection ~ 3650 3550
Wire Wire Line
	3650 4350 3450 4350
Connection ~ 3650 4250
$Comp
L power:GND #PWR9
U 1 1 5AE18734
P 3450 3850
F 0 "#PWR9" H 3450 3600 50  0001 C CNN
F 1 "GND" H 3450 3700 50  0000 C CNN
F 2 "" H 3450 3850 50  0001 C CNN
F 3 "" H 3450 3850 50  0001 C CNN
	1    3450 3850
	0    -1   -1   0   
$EndComp
$Comp
L power:GND #PWR10
U 1 1 5AE18790
P 3450 4650
F 0 "#PWR10" H 3450 4400 50  0001 C CNN
F 1 "GND" H 3450 4500 50  0000 C CNN
F 2 "" H 3450 4650 50  0001 C CNN
F 3 "" H 3450 4650 50  0001 C CNN
	1    3450 4650
	0    -1   -1   0   
$EndComp
Wire Wire Line
	3450 3650 3850 3650
Wire Wire Line
	3850 3650 3850 2150
Wire Wire Line
	3850 2150 4800 2150
Wire Wire Line
	3450 3750 3900 3750
Wire Wire Line
	3900 3750 3900 2850
Wire Wire Line
	3900 2850 4800 2850
Wire Wire Line
	3450 4450 3950 4450
Wire Wire Line
	3950 4450 3950 2550
Wire Wire Line
	3950 2550 4800 2550
Wire Wire Line
	3450 4550 4000 4550
Wire Wire Line
	4000 4550 4000 2650
Wire Wire Line
	4000 2650 4800 2650
Wire Wire Line
	2300 3600 2550 3600
Wire Wire Line
	2550 3600 2550 3450
Wire Wire Line
	2550 3450 2800 3450
Wire Wire Line
	2300 3700 2600 3700
Wire Wire Line
	2600 3700 2600 3550
Wire Wire Line
	2600 3550 2800 3550
Wire Wire Line
	2300 3800 2650 3800
Wire Wire Line
	2650 3800 2650 3650
Wire Wire Line
	2650 3650 2800 3650
Wire Wire Line
	2300 3900 2700 3900
Wire Wire Line
	2700 3900 2700 3750
Wire Wire Line
	2700 3750 2800 3750
Wire Wire Line
	2300 4250 2800 4250
Wire Wire Line
	2300 4350 2800 4350
Wire Wire Line
	2300 4450 2800 4450
Wire Wire Line
	2300 4550 2800 4550
Wire Wire Line
	4800 2750 4500 2750
Wire Wire Line
	4500 2750 4500 3650
Wire Wire Line
	4400 3650 4400 3200
Wire Wire Line
	4400 3200 3650 3200
Connection ~ 3650 3200
$Comp
L power:GND #PWR11
U 1 1 5AE1A9FE
P 4300 3650
F 0 "#PWR11" H 4300 3400 50  0001 C CNN
F 1 "GND" H 4300 3500 50  0000 C CNN
F 2 "" H 4300 3650 50  0001 C CNN
F 3 "" H 4300 3650 50  0001 C CNN
	1    4300 3650
	-1   0    0    1   
$EndComp
$Comp
L power:GND #PWR?
U 1 1 5AE1BD08
P 5650 4000
F 0 "#PWR?" H 5650 3750 50  0001 C CNN
F 1 "GND" H 5650 3850 50  0000 C CNN
F 2 "" H 5650 4000 50  0001 C CNN
F 3 "" H 5650 4000 50  0001 C CNN
	1    5650 4000
	1    0    0    -1  
$EndComp
Wire Wire Line
	5600 1150 5600 1250
Wire Wire Line
	5800 1150 5900 1150
Wire Wire Line
	5900 1150 5900 1250
Connection ~ 5800 1150
Wire Wire Line
	7750 5800 6900 5800
Wire Wire Line
	6900 5800 6900 3350
Wire Wire Line
	6900 3350 6600 3350
Wire Wire Line
	7750 5900 6800 5900
Wire Wire Line
	6800 5900 6800 3250
Wire Wire Line
	6800 3250 6600 3250
Wire Wire Line
	5300 3850 5300 3950
Wire Wire Line
	5300 3950 5400 3950
Wire Wire Line
	6000 3950 6000 3850
Wire Wire Line
	5650 3950 5650 4000
Connection ~ 5650 3950
Wire Wire Line
	5400 3850 5400 3950
Connection ~ 5400 3950
Wire Wire Line
	5500 3850 5500 3950
Connection ~ 5500 3950
Wire Wire Line
	5600 3850 5600 3950
Connection ~ 5600 3950
Wire Wire Line
	5700 3850 5700 3950
Connection ~ 5700 3950
Wire Wire Line
	5800 3850 5800 3950
Connection ~ 5800 3950
Wire Wire Line
	5900 3850 5900 3950
Connection ~ 5900 3950
$Comp
L SparkFun-Resistors:RESISTOR0402 10K2
U 1 1 5AE038DA
P 4000 2050
F 0 "10K2" H 3800 2100 45  0000 L BNN
F 1 "RESISTOR0402" H 3800 1900 45  0000 L BNN
F 2 "0402" H 4000 2200 20  0001 C CNN
F 3 "" H 4000 2050 60  0001 C CNN
F 4 " " H 4000 2250 60  0000 C CNN "Field4"
	1    4000 2050
	-1   0    0    1   
$EndComp
Wire Wire Line
	4250 3000 2550 3000
Connection ~ 4250 2350
Wire Wire Line
	3800 2050 3750 2050
Connection ~ 3750 2050
Wire Wire Line
	4200 2050 4250 2050
Connection ~ 4250 2050
$Comp
L SparkFun-Resistors:RESISTOR0402 10K?
U 1 1 5B05F2AF
P 9500 3050
F 0 "10K?" H 9300 3100 45  0000 L BNN
F 1 "RESISTOR0402" H 9300 2900 45  0000 L BNN
F 2 "0402" H 9500 3200 20  0001 C CNN
F 3 "" H 9500 3050 60  0001 C CNN
F 4 " " H 9500 3250 60  0000 C CNN "Field4"
	1    9500 3050
	-1   0    0    1   
$EndComp
Wire Wire Line
	10150 2850 10250 2850
Wire Wire Line
	10250 2850 10250 2650
Wire Wire Line
	9750 2850 9700 2850
$Comp
L power:GND #PWR?
U 1 1 5B05F8A7
P 9300 3050
F 0 "#PWR?" H 9300 2800 50  0001 C CNN
F 1 "GND" H 9300 2900 50  0000 C CNN
F 2 "" H 9300 3050 50  0001 C CNN
F 3 "" H 9300 3050 50  0001 C CNN
	1    9300 3050
	0    1    1    0   
$EndComp
Wire Wire Line
	9700 2850 9700 3050
Connection ~ 9700 2850
Wire Wire Line
	2850 1450 3200 1450
Wire Wire Line
	2500 1450 2850 1450
Wire Wire Line
	2150 1450 2150 1700
Wire Wire Line
	5500 1150 5600 1150
Wire Wire Line
	5500 1150 5500 1250
Wire Wire Line
	7450 2650 7650 2650
Wire Wire Line
	7350 2550 6600 2550
Wire Wire Line
	7250 2750 6600 2750
Wire Wire Line
	9050 2400 9050 900 
Wire Wire Line
	8350 4400 9050 4400
Wire Wire Line
	4650 1150 5500 1150
Wire Wire Line
	5500 950  5500 1150
Wire Wire Line
	5800 900  9050 900 
Wire Wire Line
	3750 2450 3750 3100
Wire Wire Line
	9100 4000 9100 3400
Wire Wire Line
	9100 4450 9100 4000
Wire Wire Line
	10450 3950 10450 4450
Wire Wire Line
	9100 3400 9100 2650
Wire Wire Line
	7650 1450 7450 1450
Wire Wire Line
	7650 1950 7650 2050
Wire Wire Line
	8050 4400 8350 4400
Wire Wire Line
	7650 5000 7650 5100
Wire Wire Line
	9100 2650 9100 850 
Wire Wire Line
	3650 1700 3650 3200
Wire Wire Line
	3650 3450 3650 3550
Wire Wire Line
	3650 3550 3650 4250
Wire Wire Line
	3650 4250 3650 4350
Wire Wire Line
	3650 3200 3650 3450
Wire Wire Line
	5800 1150 5800 1250
Wire Wire Line
	5650 3950 5700 3950
Wire Wire Line
	5400 3950 5500 3950
Wire Wire Line
	5500 3950 5600 3950
Wire Wire Line
	5600 3950 5650 3950
Wire Wire Line
	5700 3950 5800 3950
Wire Wire Line
	5800 3950 5900 3950
Wire Wire Line
	5900 3950 6000 3950
Wire Wire Line
	4250 2350 4250 3000
Wire Wire Line
	3750 2050 3750 2450
Wire Wire Line
	4250 2050 4250 2350
Wire Wire Line
	9700 2850 9150 2850
$EndSCHEMATC
